\relax 
\providecommand\hyper@newdestlabel[2]{}
\providecommand\babel@aux[2]{}
\@nameuse{bbl@beforestart}
\providecommand\HyperFirstAtBeginDocument{\AtBeginDocument}
\HyperFirstAtBeginDocument{\ifx\hyper@anchor\@undefined
\global\let\oldcontentsline\contentsline
\gdef\contentsline#1#2#3#4{\oldcontentsline{#1}{#2}{#3}}
\global\let\oldnewlabel\newlabel
\gdef\newlabel#1#2{\newlabelxx{#1}#2}
\gdef\newlabelxx#1#2#3#4#5#6{\oldnewlabel{#1}{{#2}{#3}}}
\AtEndDocument{\ifx\hyper@anchor\@undefined
\let\contentsline\oldcontentsline
\let\newlabel\oldnewlabel
\fi}
\fi}
\global\let\hyper@last\relax 
\gdef\HyperFirstAtBeginDocument#1{#1}
\providecommand\HyField@AuxAddToFields[1]{}
\providecommand\HyField@AuxAddToCoFields[2]{}
\babel@aux{english}{}
\newlabel{index::doc}{{}{1}{}{section*.2}{}}
\@writefile{toc}{\contentsline {chapter}{\numberline {1}Data Analysis Project}{3}{chapter.1}\protected@file@percent }
\@writefile{lof}{\addvspace {10\p@ }}
\@writefile{lot}{\addvspace {10\p@ }}
\newlabel{data_analysis_project:data-analysis-project}{{1}{3}{Data Analysis Project}{chapter.1}{}}
\newlabel{data_analysis_project::doc}{{1}{3}{Data Analysis Project}{chapter.1}{}}
\@writefile{toc}{\contentsline {chapter}{\numberline {2}Project Problem Definition}{5}{chapter.2}\protected@file@percent }
\@writefile{lof}{\addvspace {10\p@ }}
\@writefile{lot}{\addvspace {10\p@ }}
\newlabel{project_problem_def:project-problem-definition}{{2}{5}{Project Problem Definition}{chapter.2}{}}
\newlabel{project_problem_def::doc}{{2}{5}{Project Problem Definition}{chapter.2}{}}
\@writefile{toc}{\contentsline {chapter}{\numberline {3}Background}{7}{chapter.3}\protected@file@percent }
\@writefile{lof}{\addvspace {10\p@ }}
\@writefile{lot}{\addvspace {10\p@ }}
\newlabel{background:background}{{3}{7}{Background}{chapter.3}{}}
\newlabel{background::doc}{{3}{7}{Background}{chapter.3}{}}
\@writefile{toc}{\contentsline {chapter}{\numberline {4}Importance of Project Reviewed}{9}{chapter.4}\protected@file@percent }
\@writefile{lof}{\addvspace {10\p@ }}
\@writefile{lot}{\addvspace {10\p@ }}
\newlabel{importance:importance-of-project-reviewed}{{4}{9}{Importance of Project Reviewed}{chapter.4}{}}
\newlabel{importance::doc}{{4}{9}{Importance of Project Reviewed}{chapter.4}{}}
\@writefile{toc}{\contentsline {chapter}{\numberline {5}Key Performance Indicators (KPIs)}{11}{chapter.5}\protected@file@percent }
\@writefile{lof}{\addvspace {10\p@ }}
\@writefile{lot}{\addvspace {10\p@ }}
\newlabel{kpi:key-performance-indicators-kpis}{{5}{11}{Key Performance Indicators (KPIs)}{chapter.5}{}}
\newlabel{kpi::doc}{{5}{11}{Key Performance Indicators (KPIs)}{chapter.5}{}}
\@writefile{toc}{\contentsline {chapter}{\numberline {6}Data Set Description}{13}{chapter.6}\protected@file@percent }
\@writefile{lof}{\addvspace {10\p@ }}
\@writefile{lot}{\addvspace {10\p@ }}
\newlabel{data_set_description:data-set-description}{{6}{13}{Data Set Description}{chapter.6}{}}
\newlabel{data_set_description::doc}{{6}{13}{Data Set Description}{chapter.6}{}}
\@writefile{toc}{\contentsline {chapter}{\numberline {7}Describe the Data}{15}{chapter.7}\protected@file@percent }
\@writefile{lof}{\addvspace {10\p@ }}
\@writefile{lot}{\addvspace {10\p@ }}
\newlabel{data_review:describe-the-data}{{7}{16}{Describe the Data}{chapter.7}{}}
\newlabel{data_review::doc}{{7}{16}{Describe the Data}{chapter.7}{}}
\@writefile{lot}{\contentsline {table}{\numberline {1}{\ignorespaces Sample training data}}{17}{table.7.1}\protected@file@percent }
\newlabel{data_review:id1}{{1}{17}{Describe the Data}{table.7.1}{}}
\@writefile{toc}{\contentsline {chapter}{\numberline {8}Lessons Learned}{19}{chapter.8}\protected@file@percent }
\@writefile{lof}{\addvspace {10\p@ }}
\@writefile{lot}{\addvspace {10\p@ }}
\newlabel{lessons_learned:lessons-learned}{{8}{19}{Lessons Learned}{chapter.8}{}}
\newlabel{lessons_learned::doc}{{8}{19}{Lessons Learned}{chapter.8}{}}
\@writefile{toc}{\contentsline {chapter}{\numberline {9}Next Steps}{21}{chapter.9}\protected@file@percent }
\@writefile{lof}{\addvspace {10\p@ }}
\@writefile{lot}{\addvspace {10\p@ }}
\newlabel{next_steps:next-steps}{{9}{21}{Next Steps}{chapter.9}{}}
\newlabel{next_steps::doc}{{9}{21}{Next Steps}{chapter.9}{}}
\@writefile{toc}{\contentsline {chapter}{\numberline {10}References}{23}{chapter.10}\protected@file@percent }
\@writefile{lof}{\addvspace {10\p@ }}
\@writefile{lot}{\addvspace {10\p@ }}
\newlabel{references:references}{{10}{23}{References}{chapter.10}{}}
\newlabel{references::doc}{{10}{23}{References}{chapter.10}{}}
\@writefile{toc}{\contentsline {chapter}{\numberline {11}Questions?}{25}{chapter.11}\protected@file@percent }
\@writefile{lof}{\addvspace {10\p@ }}
\@writefile{lot}{\addvspace {10\p@ }}
\newlabel{questions:questions}{{11}{25}{Questions?}{chapter.11}{}}
\newlabel{questions::doc}{{11}{25}{Questions?}{chapter.11}{}}
\@writefile{toc}{\contentsline {chapter}{\numberline {12}Indices and tables}{27}{chapter.12}\protected@file@percent }
\@writefile{lof}{\addvspace {10\p@ }}
\@writefile{lot}{\addvspace {10\p@ }}
\newlabel{index:indices-and-tables}{{12}{27}{Indices and tables}{chapter.12}{}}
\gdef \@abspage@last{31}
